nyc
…
percent_rank
2008
0
1
0.50
0.29
0.00
0.25
0.50
0.75
1.00

data_hs

## # A tibble: 1,206 x 4
## # Groups:   year [9]
##    schnam                          year hsopcthsgtot percent_rank
##    <fct>                          <int>        <dbl>        <dbl>
##  1 UPPER LAB                       2000         90.6        1    
##  2 SCHOOL OF THE FUTURE            2000         12.7        0    
##  3 BENJAMIN BANNEKER ACADEMY       2000         63.1        0.667
##  4 THURGOOD MARSHALL ACADEMY       2000         36.1        0.333
##  5 BARUCH COLLEGE CAMPUS HS        2001         87.5        1    
##  6 UPPER LAB                       2001         86.4        0.8  
##  7 SCHOOL OF THE FUTURE            2001         72.4        0.6  
##  8 THE NEW YORK CITY MUSEUM SCHL.  2001         53.2        0    
##  9 BENJAMIN BANNEKER ACADEMY       2001         67.6        0.4  
## 10 THURGOOD MARSHALL ACADEMY       2001         54.4        0.2  
## #  with 1,196 more rows
…
